{
	"1": {
		"ID": 1,
		"RecordRewardId": 1,
		"Evaluate": "UI/Common_New_ABS/Font/Grade_E.png",
		"Damage": 50000,
		"SingleBossRewardMailTemplateId": 153
	},
	"2": {
		"ID": 2,
		"RecordRewardId": 1,
		"Evaluate": "UI/Common_New_ABS/Font/Grade_E1.png",
		"Damage": 100000,
		"SingleBossRewardMailTemplateId": 154
	},
	"3": {
		"ID": 3,
		"RecordRewardId": 1,
		"Evaluate": "UI/Common_New_ABS/Font/Grade_D.png",
		"Damage": 200000,
		"SingleBossRewardMailTemplateId": 155
	},
	"4": {
		"ID": 4,
		"RecordRewardId": 1,
		"Evaluate": "UI/Common_New_ABS/Font/Grade_D1.png",
		"Damage": 300000,
		"SingleBossRewardMailTemplateId": 156
	},
	"5": {
		"ID": 5,
		"RecordRewardId": 1,
		"Evaluate": "UI/Common_New_ABS/Font/Grade_C.png",
		"Damage": 500000,
		"SingleBossRewardMailTemplateId": 157
	},
	"6": {
		"ID": 6,
		"RecordRewardId": 1,
		"Evaluate": "UI/Common_New_ABS/Font/Grade_C1.png",
		"Damage": 700000,
		"SingleBossRewardMailTemplateId": 158
	},
	"7": {
		"ID": 7,
		"RecordRewardId": 1,
		"Evaluate": "UI/Common_New_ABS/Font/Grade_B.png",
		"Damage": 1100000,
		"SingleBossRewardMailTemplateId": 159
	},
	"8": {
		"ID": 8,
		"RecordRewardId": 1,
		"Evaluate": "UI/Common_New_ABS/Font/Grade_B1.png",
		"Damage": 1600000,
		"SingleBossRewardMailTemplateId": 160
	},
	"9": {
		"ID": 9,
		"RecordRewardId": 1,
		"Evaluate": "UI/Common_New_ABS/Font/Grade_A.png",
		"Damage": 2100000,
		"SingleBossRewardMailTemplateId": 161
	},
	"10": {
		"ID": 10,
		"RecordRewardId": 1,
		"Evaluate": "UI/Common_New_ABS/Font/Grade_A1.png",
		"Damage": 2700000,
		"SingleBossRewardMailTemplateId": 162
	},
	"11": {
		"ID": 11,
		"RecordRewardId": 1,
		"Evaluate": "UI/Common_New_ABS/Font/Grade_S.png",
		"Damage": 3400000,
		"SingleBossRewardMailTemplateId": 163
	},
	"14": {
		"ID": 14,
		"RecordRewardId": 2,
		"Evaluate": "UI/Common_New_ABS/Font/Grade_E.png",
		"Damage": 50000,
		"SingleBossRewardMailTemplateId": 166
	},
	"15": {
		"ID": 15,
		"RecordRewardId": 2,
		"Evaluate": "UI/Common_New_ABS/Font/Grade_E1.png",
		"Damage": 100000,
		"SingleBossRewardMailTemplateId": 167
	},
	"16": {
		"ID": 16,
		"RecordRewardId": 2,
		"Evaluate": "UI/Common_New_ABS/Font/Grade_D.png",
		"Damage": 250000,
		"SingleBossRewardMailTemplateId": 168
	},
	"17": {
		"ID": 17,
		"RecordRewardId": 2,
		"Evaluate": "UI/Common_New_ABS/Font/Grade_D1.png",
		"Damage": 400000,
		"SingleBossRewardMailTemplateId": 169
	},
	"18": {
		"ID": 18,
		"RecordRewardId": 2,
		"Evaluate": "UI/Common_New_ABS/Font/Grade_C.png",
		"Damage": 600000,
		"SingleBossRewardMailTemplateId": 170
	},
	"19": {
		"ID": 19,
		"RecordRewardId": 2,
		"Evaluate": "UI/Common_New_ABS/Font/Grade_C1.png",
		"Damage": 800000,
		"SingleBossRewardMailTemplateId": 171
	},
	"20": {
		"ID": 20,
		"RecordRewardId": 2,
		"Evaluate": "UI/Common_New_ABS/Font/Grade_B.png",
		"Damage": 1200000,
		"SingleBossRewardMailTemplateId": 172
	},
	"21": {
		"ID": 21,
		"RecordRewardId": 2,
		"Evaluate": "UI/Common_New_ABS/Font/Grade_B1.png",
		"Damage": 1700000,
		"SingleBossRewardMailTemplateId": 173
	},
	"22": {
		"ID": 22,
		"RecordRewardId": 2,
		"Evaluate": "UI/Common_New_ABS/Font/Grade_A.png",
		"Damage": 2400000,
		"SingleBossRewardMailTemplateId": 174
	},
	"23": {
		"ID": 23,
		"RecordRewardId": 2,
		"Evaluate": "UI/Common_New_ABS/Font/Grade_A1.png",
		"Damage": 3100000,
		"SingleBossRewardMailTemplateId": 175
	},
	"24": {
		"ID": 24,
		"RecordRewardId": 2,
		"Evaluate": "UI/Common_New_ABS/Font/Grade_S.png",
		"Damage": 4000000,
		"SingleBossRewardMailTemplateId": 176
	},
	"27": {
		"ID": 27,
		"RecordRewardId": 3,
		"Evaluate": "UI/Common_New_ABS/Font/Grade_E.png",
		"Damage": 50000,
		"SingleBossRewardMailTemplateId": 179
	},
	"28": {
		"ID": 28,
		"RecordRewardId": 3,
		"Evaluate": "UI/Common_New_ABS/Font/Grade_E1.png",
		"Damage": 150000,
		"SingleBossRewardMailTemplateId": 180
	},
	"29": {
		"ID": 29,
		"RecordRewardId": 3,
		"Evaluate": "UI/Common_New_ABS/Font/Grade_D.png",
		"Damage": 250000,
		"SingleBossRewardMailTemplateId": 181
	},
	"30": {
		"ID": 30,
		"RecordRewardId": 3,
		"Evaluate": "UI/Common_New_ABS/Font/Grade_D1.png",
		"Damage": 450000,
		"SingleBossRewardMailTemplateId": 182
	},
	"31": {
		"ID": 31,
		"RecordRewardId": 3,
		"Evaluate": "UI/Common_New_ABS/Font/Grade_C.png",
		"Damage": 650000,
		"SingleBossRewardMailTemplateId": 183
	},
	"32": {
		"ID": 32,
		"RecordRewardId": 3,
		"Evaluate": "UI/Common_New_ABS/Font/Grade_C1.png",
		"Damage": 900000,
		"SingleBossRewardMailTemplateId": 184
	},
	"33": {
		"ID": 33,
		"RecordRewardId": 3,
		"Evaluate": "UI/Common_New_ABS/Font/Grade_B.png",
		"Damage": 1300000,
		"SingleBossRewardMailTemplateId": 185
	},
	"34": {
		"ID": 34,
		"RecordRewardId": 3,
		"Evaluate": "UI/Common_New_ABS/Font/Grade_B1.png",
		"Damage": 1800000,
		"SingleBossRewardMailTemplateId": 186
	},
	"35": {
		"ID": 35,
		"RecordRewardId": 3,
		"Evaluate": "UI/Common_New_ABS/Font/Grade_A.png",
		"Damage": 2450000,
		"SingleBossRewardMailTemplateId": 187
	},
	"36": {
		"ID": 36,
		"RecordRewardId": 3,
		"Evaluate": "UI/Common_New_ABS/Font/Grade_A1.png",
		"Damage": 3200000,
		"SingleBossRewardMailTemplateId": 188
	},
	"37": {
		"ID": 37,
		"RecordRewardId": 3,
		"Evaluate": "UI/Common_New_ABS/Font/Grade_S.png",
		"Damage": 4100000,
		"SingleBossRewardMailTemplateId": 189
	},
	"40": {
		"ID": 40,
		"RecordRewardId": 4,
		"Evaluate": "UI/Common_New_ABS/Font/Grade_E.png",
		"Damage": 50000,
		"SingleBossRewardMailTemplateId": 192
	},
	"41": {
		"ID": 41,
		"RecordRewardId": 4,
		"Evaluate": "UI/Common_New_ABS/Font/Grade_E1.png",
		"Damage": 100000,
		"SingleBossRewardMailTemplateId": 193
	},
	"42": {
		"ID": 42,
		"RecordRewardId": 4,
		"Evaluate": "UI/Common_New_ABS/Font/Grade_D.png",
		"Damage": 200000,
		"SingleBossRewardMailTemplateId": 194
	},
	"43": {
		"ID": 43,
		"RecordRewardId": 4,
		"Evaluate": "UI/Common_New_ABS/Font/Grade_D1.png",
		"Damage": 350000,
		"SingleBossRewardMailTemplateId": 195
	},
	"44": {
		"ID": 44,
		"RecordRewardId": 4,
		"Evaluate": "UI/Common_New_ABS/Font/Grade_C.png",
		"Damage": 550000,
		"SingleBossRewardMailTemplateId": 196
	},
	"45": {
		"ID": 45,
		"RecordRewardId": 4,
		"Evaluate": "UI/Common_New_ABS/Font/Grade_C1.png",
		"Damage": 800000,
		"SingleBossRewardMailTemplateId": 197
	},
	"46": {
		"ID": 46,
		"RecordRewardId": 4,
		"Evaluate": "UI/Common_New_ABS/Font/Grade_B.png",
		"Damage": 1200000,
		"SingleBossRewardMailTemplateId": 198
	},
	"47": {
		"ID": 47,
		"RecordRewardId": 4,
		"Evaluate": "UI/Common_New_ABS/Font/Grade_B1.png",
		"Damage": 1700000,
		"SingleBossRewardMailTemplateId": 199
	},
	"48": {
		"ID": 48,
		"RecordRewardId": 4,
		"Evaluate": "UI/Common_New_ABS/Font/Grade_A.png",
		"Damage": 2300000,
		"SingleBossRewardMailTemplateId": 200
	},
	"49": {
		"ID": 49,
		"RecordRewardId": 4,
		"Evaluate": "UI/Common_New_ABS/Font/Grade_A1.png",
		"Damage": 3000000,
		"SingleBossRewardMailTemplateId": 201
	},
	"50": {
		"ID": 50,
		"RecordRewardId": 4,
		"Evaluate": "UI/Common_New_ABS/Font/Grade_S.png",
		"Damage": 3800000,
		"SingleBossRewardMailTemplateId": 202
	},
	"53": {
		"ID": 53,
		"RecordRewardId": 5,
		"Evaluate": "UI/Common_New_ABS/Font/Grade_E.png",
		"Damage": 50000,
		"SingleBossRewardMailTemplateId": 205
	},
	"54": {
		"ID": 54,
		"RecordRewardId": 5,
		"Evaluate": "UI/Common_New_ABS/Font/Grade_E1.png",
		"Damage": 100000,
		"SingleBossRewardMailTemplateId": 206
	},
	"55": {
		"ID": 55,
		"RecordRewardId": 5,
		"Evaluate": "UI/Common_New_ABS/Font/Grade_D.png",
		"Damage": 200000,
		"SingleBossRewardMailTemplateId": 207
	},
	"56": {
		"ID": 56,
		"RecordRewardId": 5,
		"Evaluate": "UI/Common_New_ABS/Font/Grade_D1.png",
		"Damage": 350000,
		"SingleBossRewardMailTemplateId": 208
	},
	"57": {
		"ID": 57,
		"RecordRewardId": 5,
		"Evaluate": "UI/Common_New_ABS/Font/Grade_C.png",
		"Damage": 550000,
		"SingleBossRewardMailTemplateId": 209
	},
	"58": {
		"ID": 58,
		"RecordRewardId": 5,
		"Evaluate": "UI/Common_New_ABS/Font/Grade_C1.png",
		"Damage": 800000,
		"SingleBossRewardMailTemplateId": 210
	},
	"59": {
		"ID": 59,
		"RecordRewardId": 5,
		"Evaluate": "UI/Common_New_ABS/Font/Grade_B.png",
		"Damage": 1200000,
		"SingleBossRewardMailTemplateId": 211
	},
	"60": {
		"ID": 60,
		"RecordRewardId": 5,
		"Evaluate": "UI/Common_New_ABS/Font/Grade_B1.png",
		"Damage": 1600000,
		"SingleBossRewardMailTemplateId": 212
	},
	"61": {
		"ID": 61,
		"RecordRewardId": 5,
		"Evaluate": "UI/Common_New_ABS/Font/Grade_A.png",
		"Damage": 2100000,
		"SingleBossRewardMailTemplateId": 213
	},
	"62": {
		"ID": 62,
		"RecordRewardId": 5,
		"Evaluate": "UI/Common_New_ABS/Font/Grade_A1.png",
		"Damage": 2750000,
		"SingleBossRewardMailTemplateId": 214
	},
	"63": {
		"ID": 63,
		"RecordRewardId": 5,
		"Evaluate": "UI/Common_New_ABS/Font/Grade_S.png",
		"Damage": 3500000,
		"SingleBossRewardMailTemplateId": 215
	}
}