{
	"1": {
		"ID": 1,
		"Name": "Newbie",
		"UpgradePoints": 0,
		"LevelMaxPoints": 1049,
		"DowngradePoints": 0,
		"LevelRewardMailTemplateId": 0,
		"DecreasePointsPerWeek": 0,
		"Icon": "UI/Arena_ABS/RankIcon/RankIcon_01.png"
	},
	"2": {
		"ID": 2,
		"Name": "Bronze III",
		"UpgradePoints": 1050,
		"LevelMaxPoints": 1099,
		"DowngradePoints": 1050,
		"LevelRewardMailTemplateId": 21,
		"DecreasePointsPerWeek": 30,
		"Icon": "UI/Arena_ABS/RankIcon/RankIcon_01.png"
	},
	"3": {
		"ID": 3,
		"Name": "Bronze II",
		"UpgradePoints": 1100,
		"LevelMaxPoints": 1199,
		"DowngradePoints": 1100,
		"LevelRewardMailTemplateId": 22,
		"DecreasePointsPerWeek": 30,
		"Icon": "UI/Arena_ABS/RankIcon/RankIcon_02.png"
	},
	"4": {
		"ID": 4,
		"Name": "Bronze I",
		"UpgradePoints": 1200,
		"LevelMaxPoints": 1299,
		"DowngradePoints": 1200,
		"LevelRewardMailTemplateId": 23,
		"DecreasePointsPerWeek": 50,
		"Icon": "UI/Arena_ABS/RankIcon/RankIcon_03.png"
	},
	"5": {
		"ID": 5,
		"Name": "Silver III",
		"UpgradePoints": 1300,
		"LevelMaxPoints": 1399,
		"DowngradePoints": 1300,
		"LevelRewardMailTemplateId": 24,
		"DecreasePointsPerWeek": 50,
		"Icon": "UI/Arena_ABS/RankIcon/RankIcon_04.png"
	},
	"6": {
		"ID": 6,
		"Name": "Silver II",
		"UpgradePoints": 1400,
		"LevelMaxPoints": 1499,
		"DowngradePoints": 1400,
		"LevelRewardMailTemplateId": 25,
		"DecreasePointsPerWeek": 50,
		"Icon": "UI/Arena_ABS/RankIcon/RankIcon_05.png"
	},
	"7": {
		"ID": 7,
		"Name": "Silver I",
		"UpgradePoints": 1500,
		"LevelMaxPoints": 1599,
		"DowngradePoints": 1500,
		"LevelRewardMailTemplateId": 26,
		"DecreasePointsPerWeek": 50,
		"Icon": "UI/Arena_ABS/RankIcon/RankIcon_06.png"
	},
	"8": {
		"ID": 8,
		"Name": "Gold III",
		"UpgradePoints": 1600,
		"LevelMaxPoints": 1699,
		"DowngradePoints": 1600,
		"LevelRewardMailTemplateId": 27,
		"DecreasePointsPerWeek": 50,
		"Icon": "UI/Arena_ABS/RankIcon/RankIcon_07.png"
	},
	"9": {
		"ID": 9,
		"Name": "Gold II",
		"UpgradePoints": 1700,
		"LevelMaxPoints": 1799,
		"DowngradePoints": 1700,
		"LevelRewardMailTemplateId": 28,
		"DecreasePointsPerWeek": 100,
		"Icon": "UI/Arena_ABS/RankIcon/RankIcon_08.png"
	},
	"10": {
		"ID": 10,
		"Name": "Gold I",
		"UpgradePoints": 1800,
		"LevelMaxPoints": 1899,
		"DowngradePoints": 1800,
		"LevelRewardMailTemplateId": 29,
		"DecreasePointsPerWeek": 100,
		"Icon": "UI/Arena_ABS/RankIcon/RankIcon_09.png"
	},
	"11": {
		"ID": 11,
		"Name": "Langrisser",
		"UpgradePoints": 1900,
		"LevelMaxPoints": 0,
		"DowngradePoints": 1900,
		"LevelRewardMailTemplateId": 30,
		"DecreasePointsPerWeek": 100,
		"Icon": "UI/Arena_ABS/RankIcon/RankIcon_10.png"
	}
}