{
	"1": {
		"ID": 1
	},
	"2": {
		"ID": 2
	},
	"3": {
		"ID": 3
	},
	"4": {
		"ID": 4
	},
	"5": {
		"ID": 5
	},
	"6": {
		"ID": 6
	},
	"7": {
		"ID": 7
	},
	"8": {
		"ID": 8
	},
	"9": {
		"ID": 9
	},
	"10": {
		"ID": 10
	},
	"11": {
		"ID": 11
	},
	"12": {
		"ID": 12
	},
	"13": {
		"ID": 13
	},
	"14": {
		"ID": 14
	},
	"20": {
		"ID": 20
	},
	"21": {
		"ID": 21
	},
	"22": {
		"ID": 22
	},
	"23": {
		"ID": 23
	},
	"31": {
		"ID": 31
	},
	"32": {
		"ID": 32
	},
	"33": {
		"ID": 33
	},
	"41": {
		"ID": 41
	},
	"42": {
		"ID": 42
	},
	"43": {
		"ID": 43
	},
	"51": {
		"ID": 51
	},
	"52": {
		"ID": 52
	},
	"53": {
		"ID": 53
	},
	"61": {
		"ID": 61
	},
	"62": {
		"ID": 62
	},
	"63": {
		"ID": 63
	},
	"71": {
		"ID": 71
	},
	"72": {
		"ID": 72
	},
	"73": {
		"ID": 73
	},
	"81": {
		"ID": 81
	},
	"82": {
		"ID": 82
	},
	"83": {
		"ID": 83
	},
	"85": {
		"ID": 85
	},
	"91": {
		"ID": 91
	},
	"92": {
		"ID": 92
	},
	"93": {
		"ID": 93
	},
	"95": {
		"ID": 95
	},
	"101": {
		"ID": 101
	},
	"102": {
		"ID": 102
	},
	"103": {
		"ID": 103
	},
	"111": {
		"ID": 111
	},
	"112": {
		"ID": 112
	},
	"113": {
		"ID": 113
	},
	"114": {
		"ID": 114
	},
	"121": {
		"ID": 121
	},
	"122": {
		"ID": 122
	},
	"123": {
		"ID": 123
	},
	"124": {
		"ID": 124
	},
	"131": {
		"ID": 131
	},
	"132": {
		"ID": 132
	},
	"133": {
		"ID": 133
	},
	"141": {
		"ID": 141
	},
	"142": {
		"ID": 142
	},
	"143": {
		"ID": 143
	},
	"144": {
		"ID": 144
	},
	"151": {
		"ID": 151
	},
	"152": {
		"ID": 152
	},
	"153": {
		"ID": 153
	},
	"154": {
		"ID": 154
	},
	"161": {
		"ID": 161
	},
	"162": {
		"ID": 162
	},
	"163": {
		"ID": 163
	},
	"171": {
		"ID": 171
	},
	"172": {
		"ID": 172
	},
	"173": {
		"ID": 173
	},
	"174": {
		"ID": 174
	},
	"181": {
		"ID": 181
	},
	"182": {
		"ID": 182
	},
	"183": {
		"ID": 183
	},
	"184": {
		"ID": 184
	},
	"191": {
		"ID": 191
	},
	"192": {
		"ID": 192
	},
	"193": {
		"ID": 193
	},
	"201": {
		"ID": 201
	},
	"202": {
		"ID": 202
	},
	"203": {
		"ID": 203
	},
	"211": {
		"ID": 211
	},
	"212": {
		"ID": 212
	},
	"213": {
		"ID": 213
	},
	"221": {
		"ID": 221
	},
	"222": {
		"ID": 222
	},
	"223": {
		"ID": 223
	},
	"224": {
		"ID": 224
	},
	"231": {
		"ID": 231
	},
	"232": {
		"ID": 232
	},
	"233": {
		"ID": 233
	},
	"234": {
		"ID": 234
	},
	"241": {
		"ID": 241
	},
	"242": {
		"ID": 242
	},
	"243": {
		"ID": 243
	},
	"251": {
		"ID": 251
	},
	"252": {
		"ID": 252
	},
	"253": {
		"ID": 253
	},
	"254": {
		"ID": 254
	},
	"261": {
		"ID": 261
	},
	"262": {
		"ID": 262
	},
	"263": {
		"ID": 263
	},
	"264": {
		"ID": 264
	},
	"271": {
		"ID": 271
	},
	"272": {
		"ID": 272
	},
	"273": {
		"ID": 273
	},
	"274": {
		"ID": 274
	},
	"281": {
		"ID": 281
	},
	"282": {
		"ID": 282
	},
	"283": {
		"ID": 283
	},
	"291": {
		"ID": 291
	},
	"292": {
		"ID": 292
	},
	"293": {
		"ID": 293
	},
	"301": {
		"ID": 301
	},
	"302": {
		"ID": 302
	},
	"303": {
		"ID": 303
	},
	"311": {
		"ID": 311
	},
	"312": {
		"ID": 312
	},
	"313": {
		"ID": 313
	},
	"321": {
		"ID": 321
	},
	"322": {
		"ID": 322
	},
	"323": {
		"ID": 323
	},
	"331": {
		"ID": 331
	},
	"332": {
		"ID": 332
	},
	"333": {
		"ID": 333
	},
	"334": {
		"ID": 334
	},
	"341": {
		"ID": 341
	},
	"342": {
		"ID": 342
	},
	"343": {
		"ID": 343
	},
	"345": {
		"ID": 345
	},
	"351": {
		"ID": 351
	},
	"352": {
		"ID": 352
	},
	"353": {
		"ID": 353
	},
	"354": {
		"ID": 354
	},
	"361": {
		"ID": 361
	},
	"362": {
		"ID": 362
	},
	"363": {
		"ID": 363
	},
	"364": {
		"ID": 364
	},
	"371": {
		"ID": 371
	},
	"372": {
		"ID": 372
	},
	"373": {
		"ID": 373
	},
	"381": {
		"ID": 381
	},
	"382": {
		"ID": 382
	},
	"383": {
		"ID": 383
	},
	"384": {
		"ID": 384
	},
	"391": {
		"ID": 391
	},
	"392": {
		"ID": 392
	},
	"393": {
		"ID": 393
	},
	"394": {
		"ID": 394
	},
	"401": {
		"ID": 401
	},
	"402": {
		"ID": 402
	},
	"403": {
		"ID": 403
	},
	"411": {
		"ID": 411
	},
	"412": {
		"ID": 412
	},
	"413": {
		"ID": 413
	},
	"421": {
		"ID": 421
	},
	"422": {
		"ID": 422
	},
	"423": {
		"ID": 423
	},
	"424": {
		"ID": 424
	},
	"431": {
		"ID": 431
	},
	"432": {
		"ID": 432
	},
	"433": {
		"ID": 433
	},
	"441": {
		"ID": 441
	},
	"442": {
		"ID": 442
	},
	"443": {
		"ID": 443
	},
	"444": {
		"ID": 444
	},
	"451": {
		"ID": 451
	},
	"452": {
		"ID": 452
	},
	"453": {
		"ID": 453
	},
	"454": {
		"ID": 454
	},
	"461": {
		"ID": 461
	},
	"462": {
		"ID": 462
	},
	"463": {
		"ID": 463
	},
	"471": {
		"ID": 471
	},
	"472": {
		"ID": 472
	},
	"473": {
		"ID": 473
	},
	"481": {
		"ID": 481
	},
	"482": {
		"ID": 482
	},
	"483": {
		"ID": 483
	},
	"484": {
		"ID": 484
	}
}