{
	"1": {
		"ID": 1,
		"GroupId": 1,
		"Score": 90000,
		"Name": "Phase 47",
		"RewardList": [
			{
				"GoodsType": "GoodsType_Crystal",
				"Id": 0,
				"Count": 50
			}
		],
		"RewardDisplayCount": 3
	},
	"2": {
		"ID": 2,
		"GroupId": 1,
		"Score": 85000,
		"Name": "Stage 46",
		"RewardList": [
			{
				"GoodsType": "GoodsType_Gold",
				"Id": 0,
				"Count": 650000
			}
		],
		"RewardDisplayCount": 3
	},
	"3": {
		"ID": 3,
		"GroupId": 1,
		"Score": 81000,
		"Name": "Stage 45",
		"RewardList": [
			{
				"GoodsType": "GoodsType_Item",
				"Id": 1074,
				"Count": 50
			}
		],
		"RewardDisplayCount": 3
	},
	"4": {
		"ID": 4,
		"GroupId": 1,
		"Score": 77000,
		"Name": "Stage 44",
		"RewardList": [
			{
				"GoodsType": "GoodsType_Item",
				"Id": 4026,
				"Count": 1
			}
		],
		"RewardDisplayCount": 3
	},
	"5": {
		"ID": 5,
		"GroupId": 1,
		"Score": 73000,
		"Name": "Stage 43",
		"RewardList": [
			{
				"GoodsType": "GoodsType_BrillianceMithralStone",
				"Id": 0,
				"Count": 100
			}
		],
		"RewardDisplayCount": 3
	},
	"6": {
		"ID": 6,
		"GroupId": 1,
		"Score": 69000,
		"Name": "Stage 42",
		"RewardList": [
			{
				"GoodsType": "GoodsType_Item",
				"Id": 3203,
				"Count": 8
			}
		],
		"RewardDisplayCount": 3
	},
	"7": {
		"ID": 7,
		"GroupId": 1,
		"Score": 65500,
		"Name": "Stage 41",
		"RewardList": [
			{
				"GoodsType": "GoodsType_Crystal",
				"Id": 0,
				"Count": 40
			}
		],
		"RewardDisplayCount": 3
	},
	"8": {
		"ID": 8,
		"GroupId": 1,
		"Score": 62000,
		"Name": "Stage 40",
		"RewardList": [
			{
				"GoodsType": "GoodsType_Item",
				"Id": 4001,
				"Count": 1
			}
		],
		"RewardDisplayCount": 3
	},
	"9": {
		"ID": 9,
		"GroupId": 1,
		"Score": 58500,
		"Name": "Stage 39",
		"RewardList": [
			{
				"GoodsType": "GoodsType_Gold",
				"Id": 0,
				"Count": 500000
			}
		],
		"RewardDisplayCount": 3
	},
	"10": {
		"ID": 10,
		"GroupId": 1,
		"Score": 55000,
		"Name": "Stage 38",
		"RewardList": [
			{
				"GoodsType": "GoodsType_Item",
				"Id": 4013,
				"Count": 1
			}
		],
		"RewardDisplayCount": 3
	},
	"11": {
		"ID": 11,
		"GroupId": 1,
		"Score": 51500,
		"Name": "Stage 37",
		"RewardList": [
			{
				"GoodsType": "GoodsType_Item",
				"Id": 1074,
				"Count": 40
			}
		],
		"RewardDisplayCount": 3
	},
	"12": {
		"ID": 12,
		"GroupId": 1,
		"Score": 48000,
		"Name": "Stage 36",
		"RewardList": [
			{
				"GoodsType": "GoodsType_Item",
				"Id": 3009,
				"Count": 1
			}
		],
		"RewardDisplayCount": 3
	},
	"13": {
		"ID": 13,
		"GroupId": 1,
		"Score": 45000,
		"Name": "Stage 35",
		"RewardList": [
			{
				"GoodsType": "GoodsType_BrillianceMithralStone",
				"Id": 0,
				"Count": 100
			}
		],
		"RewardDisplayCount": 3
	},
	"14": {
		"ID": 14,
		"GroupId": 1,
		"Score": 42000,
		"Name": "Stage 34",
		"RewardList": [
			{
				"GoodsType": "GoodsType_Item",
				"Id": 4012,
				"Count": 1
			}
		],
		"RewardDisplayCount": 3
	},
	"15": {
		"ID": 15,
		"GroupId": 1,
		"Score": 39000,
		"Name": "Stage 33",
		"RewardList": [
			{
				"GoodsType": "GoodsType_Item",
				"Id": 3203,
				"Count": 5
			}
		],
		"RewardDisplayCount": 3
	},
	"16": {
		"ID": 16,
		"GroupId": 1,
		"Score": 36000,
		"Name": "Stage 32",
		"RewardList": [
			{
				"GoodsType": "GoodsType_Item",
				"Id": 4026,
				"Count": 1
			}
		],
		"RewardDisplayCount": 3
	},
	"17": {
		"ID": 17,
		"GroupId": 1,
		"Score": 33000,
		"Name": "Stage 31",
		"RewardList": [
			{
				"GoodsType": "GoodsType_SkinTicket",
				"Id": 0,
				"Count": 50
			}
		],
		"RewardDisplayCount": 3
	},
	"18": {
		"ID": 18,
		"GroupId": 1,
		"Score": 30000,
		"Name": "Stage 30",
		"RewardList": [
			{
				"GoodsType": "GoodsType_Gold",
				"Id": 0,
				"Count": 350000
			}
		],
		"RewardDisplayCount": 3
	},
	"19": {
		"ID": 19,
		"GroupId": 1,
		"Score": 27000,
		"Name": "Stage 29",
		"RewardList": [
			{
				"GoodsType": "GoodsType_Crystal",
				"Id": 0,
				"Count": 30
			}
		],
		"RewardDisplayCount": 3
	},
	"20": {
		"ID": 20,
		"GroupId": 1,
		"Score": 24500,
		"Name": "Stage 28",
		"RewardList": [
			{
				"GoodsType": "GoodsType_Item",
				"Id": 6012,
				"Count": 6
			},
			{
				"GoodsType": "GoodsType_Item",
				"Id": 6015,
				"Count": 6
			},
			{
				"GoodsType": "GoodsType_Item",
				"Id": 6018,
				"Count": 6
			}
		],
		"RewardDisplayCount": 3
	},
	"21": {
		"ID": 21,
		"GroupId": 1,
		"Score": 22000,
		"Name": "Stage 27",
		"RewardList": [
			{
				"GoodsType": "GoodsType_Item",
				"Id": 4001,
				"Count": 1
			}
		],
		"RewardDisplayCount": 3
	},
	"22": {
		"ID": 22,
		"GroupId": 1,
		"Score": 19500,
		"Name": "Stage 26",
		"RewardList": [
			{
				"GoodsType": "GoodsType_Item",
				"Id": 1074,
				"Count": 30
			}
		],
		"RewardDisplayCount": 3
	},
	"23": {
		"ID": 23,
		"GroupId": 1,
		"Score": 17000,
		"Name": "Stage 25",
		"RewardList": [
			{
				"GoodsType": "GoodsType_Crystal",
				"Id": 0,
				"Count": 30
			}
		],
		"RewardDisplayCount": 3
	},
	"24": {
		"ID": 24,
		"GroupId": 1,
		"Score": 15000,
		"Name": "Stage 24",
		"RewardList": [
			{
				"GoodsType": "GoodsType_Item",
				"Id": 6003,
				"Count": 6
			},
			{
				"GoodsType": "GoodsType_Item",
				"Id": 6006,
				"Count": 6
			},
			{
				"GoodsType": "GoodsType_Item",
				"Id": 6009,
				"Count": 6
			}
		],
		"RewardDisplayCount": 3
	},
	"25": {
		"ID": 25,
		"GroupId": 1,
		"Score": 13000,
		"Name": "Stage 23",
		"RewardList": [
			{
				"GoodsType": "GoodsType_Equipment",
				"Id": 304,
				"Count": 2
			}
		],
		"RewardDisplayCount": 3
	},
	"26": {
		"ID": 26,
		"GroupId": 1,
		"Score": 11500,
		"Name": "Stage 22",
		"RewardList": [
			{
				"GoodsType": "GoodsType_Item",
				"Id": 3202,
				"Count": 8
			}
		],
		"RewardDisplayCount": 3
	},
	"27": {
		"ID": 27,
		"GroupId": 1,
		"Score": 10000,
		"Name": "Stage 21",
		"RewardList": [
			{
				"GoodsType": "GoodsType_Item",
				"Id": 1074,
				"Count": 20
			}
		],
		"RewardDisplayCount": 3
	},
	"28": {
		"ID": 28,
		"GroupId": 1,
		"Score": 9000,
		"Name": "Stage 20",
		"RewardList": [
			{
				"GoodsType": "GoodsType_Gold",
				"Id": 0,
				"Count": 250000
			}
		],
		"RewardDisplayCount": 3
	},
	"29": {
		"ID": 29,
		"GroupId": 1,
		"Score": 8000,
		"Name": "Stage 19",
		"RewardList": [
			{
				"GoodsType": "GoodsType_Item",
				"Id": 4001,
				"Count": 1
			}
		],
		"RewardDisplayCount": 3
	},
	"30": {
		"ID": 30,
		"GroupId": 1,
		"Score": 7000,
		"Name": "Stage 18",
		"RewardList": [
			{
				"GoodsType": "GoodsType_Item",
				"Id": 4012,
				"Count": 1
			}
		],
		"RewardDisplayCount": 3
	},
	"31": {
		"ID": 31,
		"GroupId": 1,
		"Score": 6000,
		"Name": "Stage 17",
		"RewardList": [
			{
				"GoodsType": "GoodsType_Item",
				"Id": 1074,
				"Count": 20
			}
		],
		"RewardDisplayCount": 3
	},
	"32": {
		"ID": 32,
		"GroupId": 1,
		"Score": 5500,
		"Name": "Stage 16",
		"RewardList": [
			{
				"GoodsType": "GoodsType_Crystal",
				"Id": 0,
				"Count": 20
			}
		],
		"RewardDisplayCount": 3
	},
	"33": {
		"ID": 33,
		"GroupId": 1,
		"Score": 5000,
		"Name": "Stage 15",
		"RewardList": [
			{
				"GoodsType": "GoodsType_Item",
				"Id": 6011,
				"Count": 8
			},
			{
				"GoodsType": "GoodsType_Item",
				"Id": 6014,
				"Count": 8
			},
			{
				"GoodsType": "GoodsType_Item",
				"Id": 6017,
				"Count": 8
			}
		],
		"RewardDisplayCount": 3
	},
	"34": {
		"ID": 34,
		"GroupId": 1,
		"Score": 4500,
		"Name": "Stage 14",
		"RewardList": [
			{
				"GoodsType": "GoodsType_Equipment",
				"Id": 303,
				"Count": 5
			}
		],
		"RewardDisplayCount": 3
	},
	"35": {
		"ID": 35,
		"GroupId": 1,
		"Score": 4000,
		"Name": "Stage 13",
		"RewardList": [
			{
				"GoodsType": "GoodsType_Item",
				"Id": 1074,
				"Count": 20
			}
		],
		"RewardDisplayCount": 3
	},
	"36": {
		"ID": 36,
		"GroupId": 1,
		"Score": 3500,
		"Name": "Stage 12",
		"RewardList": [
			{
				"GoodsType": "GoodsType_Item",
				"Id": 3201,
				"Count": 12
			}
		],
		"RewardDisplayCount": 3
	},
	"37": {
		"ID": 37,
		"GroupId": 1,
		"Score": 3000,
		"Name": "Stage 11",
		"RewardList": [
			{
				"GoodsType": "GoodsType_Gold",
				"Id": 0,
				"Count": 150000
			}
		],
		"RewardDisplayCount": 3
	},
	"38": {
		"ID": 38,
		"GroupId": 1,
		"Score": 2500,
		"Name": "Stage 10",
		"RewardList": [
			{
				"GoodsType": "GoodsType_Item",
				"Id": 4001,
				"Count": 1
			}
		],
		"RewardDisplayCount": 3
	},
	"39": {
		"ID": 39,
		"GroupId": 1,
		"Score": 2000,
		"Name": "Stage 9",
		"RewardList": [
			{
				"GoodsType": "GoodsType_Item",
				"Id": 1074,
				"Count": 20
			}
		],
		"RewardDisplayCount": 3
	},
	"40": {
		"ID": 40,
		"GroupId": 1,
		"Score": 1500,
		"Name": "Stage 8",
		"RewardList": [
			{
				"GoodsType": "GoodsType_Crystal",
				"Id": 0,
				"Count": 10
			}
		],
		"RewardDisplayCount": 3
	},
	"41": {
		"ID": 41,
		"GroupId": 1,
		"Score": 1000,
		"Name": "Stage 7",
		"RewardList": [
			{
				"GoodsType": "GoodsType_Item",
				"Id": 6002,
				"Count": 8
			},
			{
				"GoodsType": "GoodsType_Item",
				"Id": 6005,
				"Count": 8
			},
			{
				"GoodsType": "GoodsType_Item",
				"Id": 6008,
				"Count": 8
			}
		],
		"RewardDisplayCount": 3
	},
	"42": {
		"ID": 42,
		"GroupId": 1,
		"Score": 700,
		"Name": "Stage 6",
		"RewardList": [
			{
				"GoodsType": "GoodsType_Item",
				"Id": 3503,
				"Count": 1
			}
		],
		"RewardDisplayCount": 3
	},
	"43": {
		"ID": 43,
		"GroupId": 1,
		"Score": 500,
		"Name": "Phase 5",
		"RewardList": [
			{
				"GoodsType": "GoodsType_Item",
				"Id": 1074,
				"Count": 10
			}
		],
		"RewardDisplayCount": 3
	},
	"44": {
		"ID": 44,
		"GroupId": 1,
		"Score": 400,
		"Name": "Phase 4",
		"RewardList": [
			{
				"GoodsType": "GoodsType_Item",
				"Id": 3201,
				"Count": 8
			}
		],
		"RewardDisplayCount": 3
	},
	"45": {
		"ID": 45,
		"GroupId": 1,
		"Score": 300,
		"Name": "Phase 3",
		"RewardList": [
			{
				"GoodsType": "GoodsType_Item",
				"Id": 4001,
				"Count": 1
			}
		],
		"RewardDisplayCount": 3
	},
	"46": {
		"ID": 46,
		"GroupId": 1,
		"Score": 200,
		"Name": "Phase 2",
		"RewardList": [
			{
				"GoodsType": "GoodsType_Gold",
				"Id": 0,
				"Count": 100000
			}
		],
		"RewardDisplayCount": 3
	},
	"47": {
		"ID": 47,
		"GroupId": 1,
		"Score": 100,
		"Name": "Phase 1",
		"RewardList": [
			{
				"GoodsType": "GoodsType_Crystal",
				"Id": 0,
				"Count": 10
			}
		],
		"RewardDisplayCount": 3
	},
	"48": {
		"ID": 48,
		"GroupId": 2,
		"Score": 90000,
		"Name": "阶段47",
		"RewardList": [
			{
				"GoodsType": "GoodsType_Crystal",
				"Id": 0,
				"Count": 50
			}
		],
		"RewardDisplayCount": 3
	},
	"49": {
		"ID": 49,
		"GroupId": 2,
		"Score": 85000,
		"Name": "阶段46",
		"RewardList": [
			{
				"GoodsType": "GoodsType_Gold",
				"Id": 0,
				"Count": 500000
			}
		],
		"RewardDisplayCount": 3
	},
	"50": {
		"ID": 50,
		"GroupId": 2,
		"Score": 81000,
		"Name": "阶段45",
		"RewardList": [
			{
				"GoodsType": "GoodsType_Item",
				"Id": 3246,
				"Count": 3
			}
		],
		"RewardDisplayCount": 3
	},
	"51": {
		"ID": 51,
		"GroupId": 2,
		"Score": 77000,
		"Name": "阶段44",
		"RewardList": [
			{
				"GoodsType": "GoodsType_Item",
				"Id": 4021,
				"Count": 1
			}
		],
		"RewardDisplayCount": 3
	},
	"52": {
		"ID": 52,
		"GroupId": 2,
		"Score": 73000,
		"Name": "阶段43",
		"RewardList": [
			{
				"GoodsType": "GoodsType_BrillianceMithralStone",
				"Id": 0,
				"Count": 100
			}
		],
		"RewardDisplayCount": 3
	},
	"53": {
		"ID": 53,
		"GroupId": 2,
		"Score": 69000,
		"Name": "阶段42",
		"RewardList": [
			{
				"GoodsType": "GoodsType_Item",
				"Id": 3203,
				"Count": 8
			}
		],
		"RewardDisplayCount": 3
	},
	"54": {
		"ID": 54,
		"GroupId": 2,
		"Score": 65500,
		"Name": "阶段41",
		"RewardList": [
			{
				"GoodsType": "GoodsType_Crystal",
				"Id": 0,
				"Count": 40
			}
		],
		"RewardDisplayCount": 3
	},
	"55": {
		"ID": 55,
		"GroupId": 2,
		"Score": 62000,
		"Name": "阶段40",
		"RewardList": [
			{
				"GoodsType": "GoodsType_Item",
				"Id": 4001,
				"Count": 1
			}
		],
		"RewardDisplayCount": 3
	},
	"56": {
		"ID": 56,
		"GroupId": 2,
		"Score": 58500,
		"Name": "阶段39",
		"RewardList": [
			{
				"GoodsType": "GoodsType_Gold",
				"Id": 0,
				"Count": 400000
			}
		],
		"RewardDisplayCount": 3
	},
	"57": {
		"ID": 57,
		"GroupId": 2,
		"Score": 55000,
		"Name": "阶段38",
		"RewardList": [
			{
				"GoodsType": "GoodsType_Item",
				"Id": 4013,
				"Count": 1
			}
		],
		"RewardDisplayCount": 3
	},
	"58": {
		"ID": 58,
		"GroupId": 2,
		"Score": 51500,
		"Name": "阶段37",
		"RewardList": [
			{
				"GoodsType": "GoodsType_Item",
				"Id": 4529,
				"Count": 3
			}
		],
		"RewardDisplayCount": 3
	},
	"59": {
		"ID": 59,
		"GroupId": 2,
		"Score": 48000,
		"Name": "阶段36",
		"RewardList": [
			{
				"GoodsType": "GoodsType_Item",
				"Id": 3009,
				"Count": 1
			}
		],
		"RewardDisplayCount": 3
	},
	"60": {
		"ID": 60,
		"GroupId": 2,
		"Score": 45000,
		"Name": "阶段35",
		"RewardList": [
			{
				"GoodsType": "GoodsType_BrillianceMithralStone",
				"Id": 0,
				"Count": 100
			}
		],
		"RewardDisplayCount": 3
	},
	"61": {
		"ID": 61,
		"GroupId": 2,
		"Score": 42000,
		"Name": "阶段34",
		"RewardList": [
			{
				"GoodsType": "GoodsType_Item",
				"Id": 4528,
				"Count": 3
			}
		],
		"RewardDisplayCount": 3
	},
	"62": {
		"ID": 62,
		"GroupId": 2,
		"Score": 39000,
		"Name": "阶段33",
		"RewardList": [
			{
				"GoodsType": "GoodsType_Item",
				"Id": 3246,
				"Count": 2
			}
		],
		"RewardDisplayCount": 3
	},
	"63": {
		"ID": 63,
		"GroupId": 2,
		"Score": 36000,
		"Name": "阶段32",
		"RewardList": [
			{
				"GoodsType": "GoodsType_Item",
				"Id": 4023,
				"Count": 1
			}
		],
		"RewardDisplayCount": 3
	},
	"64": {
		"ID": 64,
		"GroupId": 2,
		"Score": 33000,
		"Name": "阶段31",
		"RewardList": [
			{
				"GoodsType": "GoodsType_HeroSkin",
				"Id": 403,
				"Count": 1
			}
		],
		"RewardDisplayCount": 3
	},
	"65": {
		"ID": 65,
		"GroupId": 2,
		"Score": 30000,
		"Name": "阶段30",
		"RewardList": [
			{
				"GoodsType": "GoodsType_Gold",
				"Id": 0,
				"Count": 300000
			}
		],
		"RewardDisplayCount": 3
	},
	"66": {
		"ID": 66,
		"GroupId": 2,
		"Score": 27000,
		"Name": "阶段29",
		"RewardList": [
			{
				"GoodsType": "GoodsType_Crystal",
				"Id": 0,
				"Count": 30
			}
		],
		"RewardDisplayCount": 3
	},
	"67": {
		"ID": 67,
		"GroupId": 2,
		"Score": 24500,
		"Name": "阶段28",
		"RewardList": [
			{
				"GoodsType": "GoodsType_Item",
				"Id": 4528,
				"Count": 2
			}
		],
		"RewardDisplayCount": 3
	},
	"68": {
		"ID": 68,
		"GroupId": 2,
		"Score": 22000,
		"Name": "阶段27",
		"RewardList": [
			{
				"GoodsType": "GoodsType_Item",
				"Id": 4001,
				"Count": 1
			}
		],
		"RewardDisplayCount": 3
	},
	"69": {
		"ID": 69,
		"GroupId": 2,
		"Score": 19500,
		"Name": "阶段26",
		"RewardList": [
			{
				"GoodsType": "GoodsType_Item",
				"Id": 3203,
				"Count": 5
			}
		],
		"RewardDisplayCount": 3
	},
	"70": {
		"ID": 70,
		"GroupId": 2,
		"Score": 17000,
		"Name": "阶段25",
		"RewardList": [
			{
				"GoodsType": "GoodsType_Crystal",
				"Id": 0,
				"Count": 30
			}
		],
		"RewardDisplayCount": 3
	},
	"71": {
		"ID": 71,
		"GroupId": 2,
		"Score": 15000,
		"Name": "阶段24",
		"RewardList": [
			{
				"GoodsType": "GoodsType_Item",
				"Id": 4529,
				"Count": 2
			}
		],
		"RewardDisplayCount": 3
	},
	"72": {
		"ID": 72,
		"GroupId": 2,
		"Score": 13000,
		"Name": "阶段23",
		"RewardList": [
			{
				"GoodsType": "GoodsType_Equipment",
				"Id": 304,
				"Count": 2
			}
		],
		"RewardDisplayCount": 3
	},
	"73": {
		"ID": 73,
		"GroupId": 2,
		"Score": 11500,
		"Name": "阶段22",
		"RewardList": [
			{
				"GoodsType": "GoodsType_Crystal",
				"Id": 0,
				"Count": 20
			}
		],
		"RewardDisplayCount": 3
	},
	"74": {
		"ID": 74,
		"GroupId": 2,
		"Score": 10000,
		"Name": "阶段21",
		"RewardList": [
			{
				"GoodsType": "GoodsType_Item",
				"Id": 4528,
				"Count": 1
			}
		],
		"RewardDisplayCount": 3
	},
	"75": {
		"ID": 75,
		"GroupId": 2,
		"Score": 9000,
		"Name": "阶段20",
		"RewardList": [
			{
				"GoodsType": "GoodsType_Gold",
				"Id": 0,
				"Count": 200000
			}
		],
		"RewardDisplayCount": 3
	},
	"76": {
		"ID": 76,
		"GroupId": 2,
		"Score": 8000,
		"Name": "阶段19",
		"RewardList": [
			{
				"GoodsType": "GoodsType_Item",
				"Id": 4001,
				"Count": 1
			}
		],
		"RewardDisplayCount": 3
	},
	"77": {
		"ID": 77,
		"GroupId": 2,
		"Score": 7000,
		"Name": "阶段18",
		"RewardList": [
			{
				"GoodsType": "GoodsType_Item",
				"Id": 4022,
				"Count": 1
			}
		],
		"RewardDisplayCount": 3
	},
	"78": {
		"ID": 78,
		"GroupId": 2,
		"Score": 6000,
		"Name": "阶段17",
		"RewardList": [
			{
				"GoodsType": "GoodsType_Item",
				"Id": 3202,
				"Count": 8
			}
		],
		"RewardDisplayCount": 3
	},
	"79": {
		"ID": 79,
		"GroupId": 2,
		"Score": 5500,
		"Name": "阶段16",
		"RewardList": [
			{
				"GoodsType": "GoodsType_Crystal",
				"Id": 0,
				"Count": 20
			}
		],
		"RewardDisplayCount": 3
	},
	"80": {
		"ID": 80,
		"GroupId": 2,
		"Score": 5000,
		"Name": "阶段15",
		"RewardList": [
			{
				"GoodsType": "GoodsType_Item",
				"Id": 4012,
				"Count": 1
			}
		],
		"RewardDisplayCount": 3
	},
	"81": {
		"ID": 81,
		"GroupId": 2,
		"Score": 4500,
		"Name": "阶段14",
		"RewardList": [
			{
				"GoodsType": "GoodsType_Item",
				"Id": 6012,
				"Count": 6
			},
			{
				"GoodsType": "GoodsType_Item",
				"Id": 6015,
				"Count": 6
			},
			{
				"GoodsType": "GoodsType_Item",
				"Id": 6018,
				"Count": 6
			}
		],
		"RewardDisplayCount": 3
	},
	"82": {
		"ID": 82,
		"GroupId": 2,
		"Score": 4000,
		"Name": "阶段13",
		"RewardList": [
			{
				"GoodsType": "GoodsType_Gold",
				"Id": 0,
				"Count": 150000
			}
		],
		"RewardDisplayCount": 3
	},
	"83": {
		"ID": 83,
		"GroupId": 2,
		"Score": 3500,
		"Name": "阶段12",
		"RewardList": [
			{
				"GoodsType": "GoodsType_Item",
				"Id": 3201,
				"Count": 12
			}
		],
		"RewardDisplayCount": 3
	},
	"84": {
		"ID": 84,
		"GroupId": 2,
		"Score": 3000,
		"Name": "阶段11",
		"RewardList": [
			{
				"GoodsType": "GoodsType_Equipment",
				"Id": 303,
				"Count": 5
			}
		],
		"RewardDisplayCount": 3
	},
	"85": {
		"ID": 85,
		"GroupId": 2,
		"Score": 2500,
		"Name": "阶段10",
		"RewardList": [
			{
				"GoodsType": "GoodsType_Item",
				"Id": 4001,
				"Count": 1
			}
		],
		"RewardDisplayCount": 3
	},
	"86": {
		"ID": 86,
		"GroupId": 2,
		"Score": 2000,
		"Name": "阶段9",
		"RewardList": [
			{
				"GoodsType": "GoodsType_Crystal",
				"Id": 0,
				"Count": 20
			}
		],
		"RewardDisplayCount": 3
	},
	"87": {
		"ID": 87,
		"GroupId": 2,
		"Score": 1500,
		"Name": "阶段8",
		"RewardList": [
			{
				"GoodsType": "GoodsType_Gold",
				"Id": 0,
				"Count": 150000
			}
		],
		"RewardDisplayCount": 3
	},
	"88": {
		"ID": 88,
		"GroupId": 2,
		"Score": 1000,
		"Name": "阶段7",
		"RewardList": [
			{
				"GoodsType": "GoodsType_Item",
				"Id": 6003,
				"Count": 6
			},
			{
				"GoodsType": "GoodsType_Item",
				"Id": 6006,
				"Count": 6
			},
			{
				"GoodsType": "GoodsType_Item",
				"Id": 6009,
				"Count": 6
			}
		],
		"RewardDisplayCount": 3
	},
	"89": {
		"ID": 89,
		"GroupId": 2,
		"Score": 700,
		"Name": "阶段6",
		"RewardList": [
			{
				"GoodsType": "GoodsType_Item",
				"Id": 3503,
				"Count": 1
			}
		],
		"RewardDisplayCount": 3
	},
	"90": {
		"ID": 90,
		"GroupId": 2,
		"Score": 500,
		"Name": "阶段5",
		"RewardList": [
			{
				"GoodsType": "GoodsType_Crystal",
				"Id": 0,
				"Count": 10
			}
		],
		"RewardDisplayCount": 3
	},
	"91": {
		"ID": 91,
		"GroupId": 2,
		"Score": 400,
		"Name": "阶段4",
		"RewardList": [
			{
				"GoodsType": "GoodsType_Item",
				"Id": 3201,
				"Count": 8
			}
		],
		"RewardDisplayCount": 3
	},
	"92": {
		"ID": 92,
		"GroupId": 2,
		"Score": 300,
		"Name": "阶段3",
		"RewardList": [
			{
				"GoodsType": "GoodsType_Item",
				"Id": 4001,
				"Count": 1
			}
		],
		"RewardDisplayCount": 3
	},
	"93": {
		"ID": 93,
		"GroupId": 2,
		"Score": 200,
		"Name": "阶段2",
		"RewardList": [
			{
				"GoodsType": "GoodsType_Gold",
				"Id": 0,
				"Count": 100000
			}
		],
		"RewardDisplayCount": 3
	},
	"94": {
		"ID": 94,
		"GroupId": 2,
		"Score": 100,
		"Name": "阶段1",
		"RewardList": [
			{
				"GoodsType": "GoodsType_Crystal",
				"Id": 0,
				"Count": 10
			}
		],
		"RewardDisplayCount": 3
	}
}