{
	"1": {
		"ID": 1,
		"Wins": 1,
		"Bonus": [
			{
				"GoodsType": "GoodsType_ArenaHonour",
				"Id": 0,
				"Count": 20
			},
			{
				"GoodsType": "GoodsType_Crystal",
				"Id": 0,
				"Count": 20
			}
		]
	},
	"2": {
		"ID": 2,
		"Wins": 3,
		"Bonus": [
			{
				"GoodsType": "GoodsType_ArenaHonour",
				"Id": 0,
				"Count": 40
			},
			{
				"GoodsType": "GoodsType_Crystal",
				"Id": 0,
				"Count": 30
			}
		]
	},
	"3": {
		"ID": 3,
		"Wins": 5,
		"Bonus": [
			{
				"GoodsType": "GoodsType_ArenaHonour",
				"Id": 0,
				"Count": 80
			},
			{
				"GoodsType": "GoodsType_Crystal",
				"Id": 0,
				"Count": 50
			}
		]
	}
}