{
	"1": {
		"ID": 1,
		"Reward": [
			{
				"GoodsType": "GoodsType_JobMaterial",
				"Id": 1,
				"Count": 1
			},
			{
				"GoodsType": "GoodsType_JobMaterial",
				"Id": 2,
				"Count": 2
			},
			{
				"GoodsType": "GoodsType_JobMaterial",
				"Id": 3,
				"Count": 3
			}
		]
	},
	"2": {
		"ID": 2,
		"Reward": [
			{
				"GoodsType": "GoodsType_Equipment",
				"Id": 304,
				"Count": 10
			}
		]
	},
	"3": {
		"ID": 3,
		"Reward": [
			{
				"GoodsType": "GoodsType_JobMaterial",
				"Id": 1,
				"Count": 1
			},
			{
				"GoodsType": "GoodsType_JobMaterial",
				"Id": 2,
				"Count": 2
			},
			{
				"GoodsType": "GoodsType_JobMaterial",
				"Id": 3,
				"Count": 3
			}
		]
	},
	"4": {
		"ID": 4,
		"Reward": [
			{
				"GoodsType": "GoodsType_JobMaterial",
				"Id": 1,
				"Count": 1
			},
			{
				"GoodsType": "GoodsType_JobMaterial",
				"Id": 2,
				"Count": 2
			},
			{
				"GoodsType": "GoodsType_JobMaterial",
				"Id": 3,
				"Count": 3
			}
		]
	},
	"5": {
		"ID": 5,
		"Reward": [
			{
				"GoodsType": "GoodsType_Item",
				"Id": 3004,
				"Count": 3
			}
		]
	},
	"6": {
		"ID": 6,
		"Reward": [
			{
				"GoodsType": "GoodsType_Item",
				"Id": 3004,
				"Count": 3
			}
		]
	},
	"7": {
		"ID": 7,
		"Reward": [
			{
				"GoodsType": "GoodsType_JobMaterial",
				"Id": 15,
				"Count": 1
			},
			{
				"GoodsType": "GoodsType_JobMaterial",
				"Id": 16,
				"Count": 1
			}
		]
	},
	"8": {
		"ID": 8,
		"Reward": [
			{
				"GoodsType": "GoodsType_Gold",
				"Id": 0,
				"Count": 1000
			}
		]
	},
	"9": {
		"ID": 9,
		"Reward": [
			{
				"GoodsType": "GoodsType_Item",
				"Id": 4008,
				"Count": 20
			}
		]
	},
	"10": {
		"ID": 10,
		"Reward": [
			{
				"GoodsType": "GoodsType_Item",
				"Id": 4001,
				"Count": 5
			},
			{
				"GoodsType": "GoodsType_Gold",
				"Id": 0,
				"Count": 50000
			},
			{
				"GoodsType": "GoodsType_HeadFrame",
				"Id": 2,
				"Count": 1
			},
			{
				"GoodsType": "GoodsType_Item",
				"Id": 1011,
				"Count": 30
			}
		]
	},
	"11": {
		"ID": 11,
		"Reward": [
			{
				"GoodsType": "GoodsType_Crystal",
				"Id": 0,
				"Count": 300
			},
			{
				"GoodsType": "GoodsType_Item",
				"Id": 3009,
				"Count": 3
			},
			{
				"GoodsType": "GoodsType_Gold",
				"Id": 0,
				"Count": 100000
			}
		]
	},
	"12": {
		"ID": 12,
		"Reward": [
			{
				"GoodsType": "GoodsType_SkinTicket",
				"Id": 0,
				"Count": 128
			},
			{
				"GoodsType": "GoodsType_Crystal",
				"Id": 0,
				"Count": 100
			},
			{
				"GoodsType": "GoodsType_Item",
				"Id": 4001,
				"Count": 1
			}
		]
	},
	"13": {
		"ID": 13,
		"Reward": [
			{
				"GoodsType": "GoodsType_Crystal",
				"Id": 0,
				"Count": 150
			},
			{
				"GoodsType": "GoodsType_Gold",
				"Id": 0,
				"Count": 10000
			},
			{
				"GoodsType": "GoodsType_Item",
				"Id": 3004,
				"Count": 1
			}
		]
	},
	"14": {
		"ID": 14,
		"Reward": [
			{
				"GoodsType": "GoodsType_Item",
				"Id": 4001,
				"Count": 2
			},
			{
				"GoodsType": "GoodsType_Item",
				"Id": 3503,
				"Count": 1
			},
			{
				"GoodsType": "GoodsType_Equipment",
				"Id": 303,
				"Count": 2
			},
			{
				"GoodsType": "GoodsType_Gold",
				"Id": 0,
				"Count": 36000
			}
		]
	},
	"15": {
		"ID": 15,
		"Reward": [
			{
				"GoodsType": "GoodsType_SkinTicket",
				"Id": 0,
				"Count": 128
			},
			{
				"GoodsType": "GoodsType_Crystal",
				"Id": 0,
				"Count": 50
			},
			{
				"GoodsType": "GoodsType_Gold",
				"Id": 0,
				"Count": 50000
			}
		]
	},
	"16": {
		"ID": 16,
		"Reward": [
			{
				"GoodsType": "GoodsType_Item",
				"Id": 3009,
				"Count": 1
			},
			{
				"GoodsType": "GoodsType_Item",
				"Id": 3201,
				"Count": 20
			},
			{
				"GoodsType": "GoodsType_Item",
				"Id": 3202,
				"Count": 8
			},
			{
				"GoodsType": "GoodsType_Item",
				"Id": 3203,
				"Count": 2
			},
			{
				"GoodsType": "GoodsType_Item",
				"Id": 7001,
				"Count": 1
			},
			{
				"GoodsType": "GoodsType_Item",
				"Id": 7002,
				"Count": 1
			},
			{
				"GoodsType": "GoodsType_Gold",
				"Id": 0,
				"Count": 100000
			}
		]
	},
	"17": {
		"ID": 17,
		"Reward": [
			{
				"GoodsType": "GoodsType_Item",
				"Id": 6002,
				"Count": 20
			},
			{
				"GoodsType": "GoodsType_Item",
				"Id": 6005,
				"Count": 20
			},
			{
				"GoodsType": "GoodsType_Item",
				"Id": 6008,
				"Count": 20
			},
			{
				"GoodsType": "GoodsType_Item",
				"Id": 6011,
				"Count": 20
			},
			{
				"GoodsType": "GoodsType_Item",
				"Id": 6014,
				"Count": 20
			},
			{
				"GoodsType": "GoodsType_Item",
				"Id": 6017,
				"Count": 20
			}
		]
	},
	"18": {
		"ID": 18,
		"Reward": [
			{
				"GoodsType": "GoodsType_Item",
				"Id": 6003,
				"Count": 8
			},
			{
				"GoodsType": "GoodsType_Item",
				"Id": 6006,
				"Count": 8
			},
			{
				"GoodsType": "GoodsType_Item",
				"Id": 6009,
				"Count": 8
			},
			{
				"GoodsType": "GoodsType_Item",
				"Id": 6012,
				"Count": 8
			},
			{
				"GoodsType": "GoodsType_Item",
				"Id": 6015,
				"Count": 8
			},
			{
				"GoodsType": "GoodsType_Item",
				"Id": 6018,
				"Count": 8
			}
		]
	},
	"19": {
		"ID": 19,
		"Reward": [
			{
				"GoodsType": "GoodsType_Item",
				"Id": 4001,
				"Count": 5
			},
			{
				"GoodsType": "GoodsType_Item",
				"Id": 7004,
				"Count": 3
			},
			{
				"GoodsType": "GoodsType_Item",
				"Id": 7005,
				"Count": 3
			},
			{
				"GoodsType": "GoodsType_Gold",
				"Id": 0,
				"Count": 500000
			}
		]
	},
	"20": {
		"ID": 20,
		"Reward": [
			{
				"GoodsType": "GoodsType_EnchantStone",
				"Id": 3,
				"Count": 2
			},
			{
				"GoodsType": "GoodsType_EnchantStone",
				"Id": 6,
				"Count": 2
			},
			{
				"GoodsType": "GoodsType_EnchantStone",
				"Id": 9,
				"Count": 2
			},
			{
				"GoodsType": "GoodsType_EnchantStone",
				"Id": 11,
				"Count": 2
			}
		]
	},
	"21": {
		"ID": 21,
		"Reward": [
			{
				"GoodsType": "GoodsType_EnchantStone",
				"Id": 18,
				"Count": 2
			},
			{
				"GoodsType": "GoodsType_EnchantStone",
				"Id": 26,
				"Count": 2
			}
		]
	},
	"22": {
		"ID": 22,
		"Reward": [
			{
				"GoodsType": "GoodsType_EnchantStone",
				"Id": 30,
				"Count": 2
			},
			{
				"GoodsType": "GoodsType_EnchantStone",
				"Id": 33,
				"Count": 2
			},
			{
				"GoodsType": "GoodsType_EnchantStone",
				"Id": 34,
				"Count": 2
			},
			{
				"GoodsType": "GoodsType_EnchantStone",
				"Id": 38,
				"Count": 2
			},
			{
				"GoodsType": "GoodsType_EnchantStone",
				"Id": 36,
				"Count": 2
			}
		]
	},
	"23": {
		"ID": 23,
		"Reward": [
			{
				"GoodsType": "GoodsType_Crystal",
				"Id": 0,
				"Count": 880
			},
			{
				"GoodsType": "GoodsType_Gold",
				"Id": 0,
				"Count": 150000
			},
			{
				"GoodsType": "GoodsType_BrillianceMithralStone",
				"Id": 0,
				"Count": 200
			}
		]
	},
	"24": {
		"ID": 24,
		"Reward": [
			{
				"GoodsType": "GoodsType_Crystal",
				"Id": 0,
				"Count": 2400
			},
			{
				"GoodsType": "GoodsType_Item",
				"Id": 3009,
				"Count": 1
			},
			{
				"GoodsType": "GoodsType_Gold",
				"Id": 0,
				"Count": 600000
			},
			{
				"GoodsType": "GoodsType_Item",
				"Id": 3203,
				"Count": 12
			}
		]
	},
	"25": {
		"ID": 25,
		"Reward": [
			{
				"GoodsType": "GoodsType_Crystal",
				"Id": 0,
				"Count": 2400
			},
			{
				"GoodsType": "GoodsType_Item",
				"Id": 3009,
				"Count": 1
			},
			{
				"GoodsType": "GoodsType_Gold",
				"Id": 0,
				"Count": 600000
			},
			{
				"GoodsType": "GoodsType_Item",
				"Id": 3203,
				"Count": 12
			}
		]
	},
	"26": {
		"ID": 26,
		"Reward": [
			{
				"GoodsType": "GoodsType_Crystal",
				"Id": 0,
				"Count": 150
			},
			{
				"GoodsType": "GoodsType_Item",
				"Id": 4001,
				"Count": 1
			},
			{
				"GoodsType": "GoodsType_Gold",
				"Id": 0,
				"Count": 100000
			},
			{
				"GoodsType": "GoodsType_Item",
				"Id": 3203,
				"Count": 2
			}
		]
	},
	"27": {
		"ID": 27,
		"Reward": [
			{
				"GoodsType": "GoodsType_Crystal",
				"Id": 0,
				"Count": 680
			},
			{
				"GoodsType": "GoodsType_Item",
				"Id": 4502,
				"Count": 10
			},
			{
				"GoodsType": "GoodsType_Gold",
				"Id": 0,
				"Count": 600000
			},
			{
				"GoodsType": "GoodsType_BrillianceMithralStone",
				"Id": 0,
				"Count": 300
			}
		]
	},
	"28": {
		"ID": 28,
		"Reward": [
			{
				"GoodsType": "GoodsType_Crystal",
				"Id": 0,
				"Count": 300
			},
			{
				"GoodsType": "GoodsType_Item",
				"Id": 3203,
				"Count": 5
			},
			{
				"GoodsType": "GoodsType_Item",
				"Id": 4515,
				"Count": 1
			},
			{
				"GoodsType": "GoodsType_Item",
				"Id": 4516,
				"Count": 1
			},
			{
				"GoodsType": "GoodsType_Item",
				"Id": 4517,
				"Count": 1
			},
			{
				"GoodsType": "GoodsType_Item",
				"Id": 4525,
				"Count": 1
			},
			{
				"GoodsType": "GoodsType_Gold",
				"Id": 0,
				"Count": 300000
			}
		]
	},
	"29": {
		"ID": 29,
		"Reward": [
			{
				"GoodsType": "GoodsType_Crystal",
				"Id": 0,
				"Count": 1500
			},
			{
				"GoodsType": "GoodsType_Item",
				"Id": 3009,
				"Count": 1
			},
			{
				"GoodsType": "GoodsType_Item",
				"Id": 4508,
				"Count": 2
			},
			{
				"GoodsType": "GoodsType_Item",
				"Id": 4507,
				"Count": 4
			}
		]
	},
	"30": {
		"ID": 30,
		"Reward": [
			{
				"GoodsType": "GoodsType_BrillianceMithralStone",
				"Id": 0,
				"Count": 300
			},
			{
				"GoodsType": "GoodsType_Item",
				"Id": 3503,
				"Count": 5
			},
			{
				"GoodsType": "GoodsType_Gold",
				"Id": 0,
				"Count": 200000
			}
		]
	},
	"31": {
		"ID": 31,
		"Reward": [
			{
				"GoodsType": "GoodsType_Item",
				"Id": 7004,
				"Count": 2
			},
			{
				"GoodsType": "GoodsType_Item",
				"Id": 7005,
				"Count": 2
			},
			{
				"GoodsType": "GoodsType_Item",
				"Id": 7018,
				"Count": 5
			},
			{
				"GoodsType": "GoodsType_Item",
				"Id": 7030,
				"Count": 5
			},
			{
				"GoodsType": "GoodsType_Item",
				"Id": 7017,
				"Count": 5
			},
			{
				"GoodsType": "GoodsType_Item",
				"Id": 7029,
				"Count": 5
			},
			{
				"GoodsType": "GoodsType_Gold",
				"Id": 0,
				"Count": 300000
			}
		]
	},
	"32": {
		"ID": 32,
		"Reward": [
			{
				"GoodsType": "GoodsType_ChallengePoint",
				"Id": 0,
				"Count": 150
			},
			{
				"GoodsType": "GoodsType_Item",
				"Id": 4502,
				"Count": 5
			},
			{
				"GoodsType": "GoodsType_Equipment",
				"Id": 303,
				"Count": 10
			},
			{
				"GoodsType": "GoodsType_Item",
				"Id": 4512,
				"Count": 1
			},
			{
				"GoodsType": "GoodsType_Item",
				"Id": 4511,
				"Count": 2
			},
			{
				"GoodsType": "GoodsType_Item",
				"Id": 4510,
				"Count": 3
			},
			{
				"GoodsType": "GoodsType_Gold",
				"Id": 0,
				"Count": 500000
			}
		]
	},
	"33": {
		"ID": 33,
		"Reward": [
			{
				"GoodsType": "GoodsType_Item",
				"Id": 7033,
				"Count": 1
			},
			{
				"GoodsType": "GoodsType_Item",
				"Id": 7034,
				"Count": 1
			},
			{
				"GoodsType": "GoodsType_Item",
				"Id": 7035,
				"Count": 1
			},
			{
				"GoodsType": "GoodsType_Item",
				"Id": 7036,
				"Count": 1
			}
		]
	},
	"34": {
		"ID": 34,
		"Reward": [
			{
				"GoodsType": "GoodsType_Item",
				"Id": 7038,
				"Count": 1
			},
			{
				"GoodsType": "GoodsType_Item",
				"Id": 7039,
				"Count": 1
			},
			{
				"GoodsType": "GoodsType_Item",
				"Id": 7040,
				"Count": 1
			},
			{
				"GoodsType": "GoodsType_Item",
				"Id": 7041,
				"Count": 1
			}
		]
	},
	"35": {
		"ID": 35,
		"Reward": [
			{
				"GoodsType": "GoodsType_Item",
				"Id": 3246,
				"Count": 2
			},
			{
				"GoodsType": "GoodsType_Item",
				"Id": 4529,
				"Count": 2
			},
			{
				"GoodsType": "GoodsType_Item",
				"Id": 4528,
				"Count": 3
			},
			{
				"GoodsType": "GoodsType_Item",
				"Id": 4515,
				"Count": 2
			},
			{
				"GoodsType": "GoodsType_Item",
				"Id": 4516,
				"Count": 2
			},
			{
				"GoodsType": "GoodsType_Item",
				"Id": 4517,
				"Count": 2
			},
			{
				"GoodsType": "GoodsType_Gold",
				"Id": 0,
				"Count": 300000
			}
		]
	},
	"36": {
		"ID": 36,
		"Reward": [
			{
				"GoodsType": "GoodsType_SkinTicket",
				"Id": 0,
				"Count": 188
			},
			{
				"GoodsType": "GoodsType_Item",
				"Id": 4001,
				"Count": 5
			},
			{
				"GoodsType": "GoodsType_Gold",
				"Id": 0,
				"Count": 200000
			}
		]
	},
	"37": {
		"ID": 37,
		"Reward": [
			{
				"GoodsType": "GoodsType_Item",
				"Id": 3203,
				"Count": 10
			},
			{
				"GoodsType": "GoodsType_BrillianceMithralStone",
				"Id": 0,
				"Count": 100
			},
			{
				"GoodsType": "GoodsType_Gold",
				"Id": 0,
				"Count": 200000
			}
		]
	},
	"38": {
		"ID": 38,
		"Reward": [
			{
				"GoodsType": "GoodsType_Item",
				"Id": 3203,
				"Count": 10
			},
			{
				"GoodsType": "GoodsType_BrillianceMithralStone",
				"Id": 0,
				"Count": 100
			},
			{
				"GoodsType": "GoodsType_Gold",
				"Id": 0,
				"Count": 200000
			}
		]
	},
	"39": {
		"ID": 39,
		"Reward": [
			{
				"GoodsType": "GoodsType_Item",
				"Id": 4001,
				"Count": 1
			},
			{
				"GoodsType": "GoodsType_Item",
				"Id": 4502,
				"Count": 10
			},
			{
				"GoodsType": "GoodsType_Gold",
				"Id": 0,
				"Count": 600000
			}
		]
	},
	"40": {
		"ID": 40,
		"Reward": [
			{
				"GoodsType": "GoodsType_Item",
				"Id": 3009,
				"Count": 1
			},
			{
				"GoodsType": "GoodsType_Item",
				"Id": 4502,
				"Count": 10
			},
			{
				"GoodsType": "GoodsType_Gold",
				"Id": 0,
				"Count": 600000
			},
			{
				"GoodsType": "GoodsType_BrillianceMithralStone",
				"Id": 0,
				"Count": 300
			}
		]
	},
	"41": {
		"ID": 41,
		"Reward": [
			{
				"GoodsType": "GoodsType_SkinTicket",
				"Id": 0,
				"Count": 196
			},
			{
				"GoodsType": "GoodsType_Item",
				"Id": 4001,
				"Count": 4
			},
			{
				"GoodsType": "GoodsType_Gold",
				"Id": 0,
				"Count": 300000
			}
		]
	},
	"42": {
		"ID": 42,
		"Reward": [
			{
				"GoodsType": "GoodsType_Crystal",
				"Id": 0,
				"Count": 100
			},
			{
				"GoodsType": "GoodsType_Gold",
				"Id": 0,
				"Count": 10000
			}
		]
	},
	"43": {
		"ID": 43,
		"Reward": [
			{
				"GoodsType": "GoodsType_Gold",
				"Id": 0,
				"Count": 50000
			},
			{
				"GoodsType": "GoodsType_Item",
				"Id": 4508,
				"Count": 1
			},
			{
				"GoodsType": "GoodsType_Item",
				"Id": 4507,
				"Count": 2
			},
			{
				"GoodsType": "GoodsType_Item",
				"Id": 4506,
				"Count": 2
			},
			{
				"GoodsType": "GoodsType_Item",
				"Id": 4505,
				"Count": 2
			},
			{
				"GoodsType": "GoodsType_Item",
				"Id": 4504,
				"Count": 2
			}
		]
	},
	"44": {
		"ID": 44,
		"Reward": [
			{
				"GoodsType": "GoodsType_Gold",
				"Id": 0,
				"Count": 100000
			},
			{
				"GoodsType": "GoodsType_Equipment",
				"Id": 308,
				"Count": 1
			}
		]
	},
	"45": {
		"ID": 45,
		"Reward": [
			{
				"GoodsType": "GoodsType_Item",
				"Id": 3009,
				"Count": 1
			},
			{
				"GoodsType": "GoodsType_Item",
				"Id": 3203,
				"Count": 15
			},
			{
				"GoodsType": "GoodsType_Gold",
				"Id": 0,
				"Count": 1000000
			}
		]
	},
	"46": {
		"ID": 46,
		"Reward": [
			{
				"GoodsType": "GoodsType_SkinTicket",
				"Id": 0,
				"Count": 118
			},
			{
				"GoodsType": "GoodsType_Item",
				"Id": 4502,
				"Count": 5
			},
			{
				"GoodsType": "GoodsType_Item",
				"Id": 4057,
				"Count": 5
			},
			{
				"GoodsType": "GoodsType_Gold",
				"Id": 0,
				"Count": 300000
			}
		]
	}
}