{
	"1": {
		"ID": 1,
		"Desc": "传说，在遥远的艾露萨利亚大陆上存在着两把剑：\n光之剑名为「圣剑•兰古利萨」，轻轻一挥便能荡尽世间一切邪恶。\n暗之剑名为「魔剑•阿鲁哈萨托」，稍稍举起即能够号令天下魔族。\n\n长久以来，光与暗一直对立着，围绕着圣剑与魔剑的战争也从未停止。\n直到一百五十年前的终焉战争，圣剑与魔剑双双消失，跨越千年的传说终于画上了句点。\n\n然而……\n黑暗之神的代言者波赞鲁卷土重来，魔族的大军再次集结，血色的阴谋笼罩了整个大陆。\n\n谁能给这片大陆重新带来希望呢？\n\n新的传说，从少年「马修」的梦境中伊始……",
		"Music": "",
		"Image": "UI/StoryDescImage_ABS/StoryDescBG_01.png"
	},
	"2": {
		"ID": 2,
		"Desc": "【梦幻模拟战II】\n\n光暗对立，圣魔剑战争200年的循环亘古不变，圣剑兰古利萨与魔剑阿鲁哈萨托静候着各自应许的主人……\n\n雷卡尔特帝国的帝王巴恩哈特满怀征服大陆的野心，不断发起战争，延伸着他的势力版图。\n在这野心和战争的背后，是暗之国法鲁赞利亚的黑暗王子波赞鲁和传说中的魔剑阿鲁哈萨托。\n\n战争席卷大陆，魔剑的封印也将被解开，黑暗即将来临！\n而命运之中注定将继承光之圣剑的那个名叫艾尔文的少年，来到了他的伙伴海恩的村庄；就在这时，雷卡尔特帝国的骑士团从村外打了进来……",
		"Music": "",
		"Image": "UI/StoryDescImage_ABS/StoryDescBG_01.png"
	},
	"3": {
		"ID": 3,
		"Desc": "【梦幻模拟战I】\n\n传说，这个世界上存在着一把名为兰古利萨的圣剑，谁拥有它就可以获得无穷的力量。\n千年来，为了争夺圣剑而发起的战争从未停止……\n\n巴尔迪亚王国世代守护着光之圣剑兰古利萨，而达尔希斯帝国的皇帝狄高斯为了借助兰古利萨的力量实现他称霸大陆的野心，率领大军发动了对巴尔迪亚王国的侵略战争！\n\n天空被血色笼罩，曾经的家园变得断壁残垣……王城岌岌可危，王国最后的希望——王子雷丁需要从这熊熊燃烧的战火中逃出去……",
		"Music": "",
		"Image": "UI/StoryDescImage_ABS/StoryDescBG_01.png"
	},
	"4": {
		"ID": 4,
		"Desc": "【梦幻模拟战III】\n\n在那古老得连圣剑兰古利萨都还未创生的年代，光之女神露希莉斯的结界守护着整个世界，而黑暗之神卡奥斯的爪牙正在阴影中觊觎着人间……\n\n那时的艾露萨利亚大陆上，有一个富饶而繁盛的国家名为拉卡斯。它的繁荣引得邻国垂涎不已，曾数次对它发起侵略，但凭借着空中城堡浮空城的威力，王国安定至今。\n\n然而，浮空城的强大使得拉卡斯王国产生了盲目的自信，放松了王都的军备。就在见习骑士迪哈尔特的册封仪式上，利古里亚帝国发动了对浮空城的突袭。\n\n光与暗的永恒之战，搅动整个大陆的旷世纷争，国仇家恨与儿女情长在此刻交错迸发……",
		"Music": "",
		"Image": "UI/StoryDescImage_ABS/StoryDescBG_01.png"
	}
}