{
	"12": {
		"ID": 12,
		"GameFunctionTypeID": "GameFunctionType_AnikiGym"
	},
	"13": {
		"ID": 13,
		"GameFunctionTypeID": "GameFunctionType_ThearchyTrial"
	},
	"41": {
		"ID": 41,
		"GameFunctionTypeID": "GameFunctionType_TreasureMap"
	},
	"42": {
		"ID": 42,
		"GameFunctionTypeID": "GameFunctionType_MemoryCorridor"
	},
	"51": {
		"ID": 51,
		"GameFunctionTypeID": "GameFunctionType_HeroTrainning"
	},
	"1": {
		"ID": 1,
		"GameFunctionTypeID": "GameFunctionType_Mission"
	}
}